{
  "project_info": {
    "project_number": "353110256539",
    "firebase_url": "https://comvoiceshotvsdialer.firebaseio.com",
    "project_id": "comvoiceshotvsdialer",
    "storage_bucket": "comvoiceshotvsdialer.appspot.com"
  },
  "client": [
    {
      "client_info": {
        "mobilesdk_app_id": "1:353110256539:android:f5c723cf43a8eb12",
        "android_client_info": {
          "package_name": "com.voiceshot.vsdialer"
        }
      },
      "oauth_client": [
        {
          "client_id": "353110256539-jpm1amuf4emrkjkajnh9ff5musnmm7sv.apps.googleusercontent.com",
          "client_type": 1,
          "android_info": {
            "package_name": "com.voiceshot.vsdialer",
            "certificate_hash": "c6fa19e403c9d8e6467cba9593f317e07ba4b97c"
          }
        },
        {
          "client_id": "353110256539-ja5n5jk21lsff4m19j2lndtgn0cf2h6v.apps.googleusercontent.com",
          "client_type": 1,
          "android_info": {
            "package_name": "com.voiceshot.vsdialer",
            "certificate_hash": "88d9506565fb21519e1f6dc9e4297025c26a5e4e"
          }
        },
        {
          "client_id": "353110256539-6tt236khud2v06894p41l28f85ab5ai6.apps.googleusercontent.com",
          "client_type": 3
        }
      ],
      "api_key": [
        {
          "current_key": "AIzaSyBs3mSif03-gGj5umPcf33bUYGiYH_YS3w"
        }
      ],
      "services": {
        "analytics_service": {
          "status": 1
        },
        "appinvite_service": {
          "status": 2,
          "other_platform_oauth_client": [
            {
              "client_id": "353110256539-6tt236khud2v06894p41l28f85ab5ai6.apps.googleusercontent.com",
              "client_type": 3
            }
          ]
        },
        "ads_service": {
          "status": 2
        }
      }
    }
  ],
  "configuration_version": "1"
}